<svg xmlns="http://www.w3.org/2000/svg" width="51.378" height="40" viewBox="0 0 51.378 40">
  <path id="Path_106" data-name="Path 106" d="M9.35,39.735V37.089a1.552,1.552,0,0,0-1.676-1.676,1.74,1.74,0,0,0-1.5.75,1.543,1.543,0,0,0-1.411-.75,1.424,1.424,0,0,0-1.235.617V35.5H2.646v4.234h.926V37.4c0-.75.4-1.1,1.014-1.1s.926.4.926,1.1v2.337h.926V37.4a.976.976,0,0,1,1.014-1.1c.617,0,.926.4.926,1.1v2.337ZM23.065,35.5h-1.5V34.223h-.926V35.5H19.8v.838h.838v1.94c0,.97.4,1.544,1.455,1.544a2.467,2.467,0,0,0,1.147-.309l-.265-.794a1.451,1.451,0,0,1-.794.221c-.441,0-.617-.265-.617-.706v-1.9h1.5Zm7.806-.088a1.243,1.243,0,0,0-1.1.617V35.5h-.926v4.234h.926V37.354c0-.706.309-1.1.882-1.1a2.581,2.581,0,0,1,.573.088l.265-.882c-.176,0-.441-.044-.617-.044Zm-11.819.441a3.027,3.027,0,0,0-1.72-.441c-1.058,0-1.764.529-1.764,1.367,0,.706.529,1.1,1.455,1.235l.441.044c.485.088.75.221.75.441,0,.309-.353.529-.97.529a2.434,2.434,0,0,1-1.411-.441l-.441.706a3.119,3.119,0,0,0,1.808.529c1.235,0,1.94-.573,1.94-1.367,0-.75-.573-1.147-1.455-1.279l-.441-.044c-.4-.044-.706-.132-.706-.4,0-.309.309-.485.794-.485a3.179,3.179,0,0,1,1.323.353Zm24.564-.441a1.243,1.243,0,0,0-1.1.617V35.5h-.926v4.234h.926V37.354c0-.706.309-1.1.882-1.1a2.581,2.581,0,0,1,.573.088l.265-.882c-.176,0-.441-.044-.617-.044ZM31.8,37.619a2.118,2.118,0,0,0,2.249,2.205,2.194,2.194,0,0,0,1.5-.485l-.441-.75a1.782,1.782,0,0,1-1.1.4,1.252,1.252,0,0,1-1.279-1.367A1.3,1.3,0,0,1,34,36.251a1.782,1.782,0,0,1,1.1.4l.441-.75a2.194,2.194,0,0,0-1.5-.485A2.118,2.118,0,0,0,31.8,37.619Zm8.6,0V35.5h-.926v.529a1.593,1.593,0,0,0-1.323-.617,2.207,2.207,0,0,0,0,4.41,1.484,1.484,0,0,0,1.323-.617v.529H40.4Zm-3.44,0a1.282,1.282,0,1,1,2.558,0,1.3,1.3,0,0,1-1.279,1.367,1.275,1.275,0,0,1-1.279-1.367ZM25.888,35.413a2.206,2.206,0,0,0,.044,4.41,2.7,2.7,0,0,0,1.72-.573l-.441-.662a2.107,2.107,0,0,1-1.235.441A1.19,1.19,0,0,1,24.7,38.015h3.131v-.353a1.927,1.927,0,0,0-1.94-2.249Zm0,.838a1.031,1.031,0,0,1,1.058,1.014H24.741a1.113,1.113,0,0,1,1.147-1.014Zm23.021,1.367V33.826h-.926v2.205a1.593,1.593,0,0,0-1.323-.617,2.207,2.207,0,0,0,0,4.41,1.484,1.484,0,0,0,1.323-.617v.529h.926Zm-3.44,0a1.282,1.282,0,1,1,2.558,0,1.3,1.3,0,0,1-1.279,1.367,1.275,1.275,0,0,1-1.279-1.367Zm-30.959,0V35.5h-.926v.529a1.593,1.593,0,0,0-1.323-.617,2.207,2.207,0,0,0,0,4.41,1.484,1.484,0,0,0,1.323-.617v.529h.926V37.619Zm-3.4,0a1.282,1.282,0,1,1,2.558,0,1.3,1.3,0,0,1-1.279,1.367A1.275,1.275,0,0,1,11.114,37.619Zm39.294,1.5a.265.265,0,0,1,.176.044c.044,0,.088.044.132.088s.088.088.088.132.044.088.044.176a.265.265,0,0,1-.044.176c-.044.044-.044.088-.088.132s-.088.088-.132.088C50.54,40,50.5,40,50.408,40a.265.265,0,0,1-.176-.044c-.044-.044-.088-.044-.132-.088s-.088-.088-.088-.132c-.044-.044-.044-.088-.044-.176a.265.265,0,0,1,.044-.176c.044-.044.044-.088.088-.132s.088-.088.132-.088A.333.333,0,0,1,50.408,39.118Zm0,.75a.162.162,0,0,0,.132-.044.1.1,0,0,0,.088-.088l.088-.088c0-.044.044-.088.044-.132a.162.162,0,0,0-.044-.132.1.1,0,0,0-.088-.088l-.088-.088c-.044,0-.088-.044-.132-.044a.162.162,0,0,0-.132.044.1.1,0,0,0-.088.088l-.088.088c0,.044-.044.088-.044.132a.162.162,0,0,0,.044.132.1.1,0,0,0,.088.088l.088.088A.162.162,0,0,0,50.408,39.868Zm.044-.529a.162.162,0,0,1,.132.044c.044.044.044.044.044.088s0,.044-.044.088a.154.154,0,0,1-.088.044l.132.132H50.54l-.132-.132h-.044v.132h-.088v-.4h.176Zm-.088.088v.088H50.5v-.088h-.132Zm-.485-13.716v-.529H50.1v-.088H49.57v.088h.221v.529Zm1.014,0v-.617h-.176l-.176.441-.176-.441h-.176v.617h.132v-.485l.176.4h.132l.176-.4v.485ZM24.3,28.8c.132.088.265.221.4.309A15.887,15.887,0,1,1,15.877,0a15.717,15.717,0,0,1,8.776,2.646c-.132.088-.265.221-.4.309A17.124,17.124,0,0,0,24.3,28.8ZM35.5,0a15.717,15.717,0,0,0-8.776,2.646c.132.088.265.221.4.309a17.049,17.049,0,0,1,5.865,12.922A17.271,17.271,0,0,1,27.122,28.8c-.132.088-.265.221-.4.309A15.877,15.877,0,1,0,35.5,0ZM25.667,3.4c-.221.176-.4.309-.617.485a15.933,15.933,0,0,0,.044,23.991,3.33,3.33,0,0,0,.617.485c.221-.176.4-.309.617-.485a15.933,15.933,0,0,0-.044-23.991c-.176-.132-.4-.309-.617-.485" fill="#324755"/>
</svg>
